%YAML 1.1
%TAG !u! tag:unity3d.com,2011:
--- !u!114 &11400000
MonoBehaviour:
  m_ObjectHideFlags: 0
  m_CorrespondingSourceObject: {fileID: 0}
  m_PrefabInstance: {fileID: 0}
  m_PrefabAsset: {fileID: 0}
  m_GameObject: {fileID: 0}
  m_Enabled: 1
  m_EditorHideFlags: 0
  m_Script: {fileID: 11500000, guid: 25cf2d44ed57fd643a36e346beabeeba, type: 3}
  m_Name: User Preferences
  m_EditorClassIdentifier: 
  ProjectName: template
  ExportPath: G:\GeniusXR - Internship 2021\Altspace Custom World\MTLXRAltspace
  IsWindowsBuild: 1
  IsAndroidBuild: 1
  IsMacBuild: 1
  Email: 
  Password: 
  RememberUserLogin: 1
